…
group_by(.data, ..., add = FALSE)

data为S3类型的tbl数据；... 为要分组的变量，也可为表达式； add为是否添加已存在的组，默认为覆盖。

```python
grouped <- group_by(mtcars, cyl)  ##mtcars按照cyl分组
grouped
```

> grouped <- group_by(mtcars, cyl)  ##mtcars按照cyl分组
> grouped
Source: local data frame [32 x 11]
Groups: cyl [3]

     mpg   cyl  disp    hp  drat    wt  qsec    vs    am
*          
1   21.0     6 160.0   110  3.90 2.620 16.46     0     1
2   21.0     6 160.0   110  3.90 2.875 17.02     0     1
3   22.8     4 108.0    93  3.85 2.320 18.61     1     1
4   21.4     6 258.0   110  3.08 3.215 19.44     1     0
5   18.7     8 360.0   175  3.15 3.440 17.02     0     0
6   18.1     6 225.0   105  2.76 3.460 20.22     1     0
7   14.3     8 360.0   245  3.21 3.570 15.84     0     0
8   24.4     4 146.7    62  3.69 3.190 20.00     1     0
9   22.8     4 140.8    95  3.92 3.150 22.90     1     0
10  19.2     6 167.6   123  3.92 3.440 18.30     1     0
# ... with 22 more rows, and 2 more variables:
#   gear , carb 

`summarise(grouped, mean(disp), mean(hp))  ##对分组变量分别求均值`# A tibble: 3 × 3    cyl `mean(disp)` `mean(hp)`                1     4     105.1364   82.636362     6     183.3143  122.285713     8     353.1000  209.21429
```python
filter(grouped, disp == max(disp))  ##分别找出各自组中disp的最大值
```

> filter(grouped, disp == max(disp))  ##分别找出各自组中disp的最大值Source: local data frame [3 x 11]Groups: cyl [3]    mpg   cyl  disp    hp  drat    wt  qsec    vs    am          1  21.4     6 258.0   110  3.08 3.215 19.44     1     02  24.4     4 146.7    62  3.69 3.190 20.00     1     03  10.4     8 472.0   205  2.93 5.250 17.98     0     0# ... with 2 more variables: gear , carb 
```python
by_vs_am <- group_by(mtcars, vs, am)  ##按照两个变量vs, am分组
```



> by_vs_am <- group_by(mtcars, vs, am)  ##按照两个变量vs, am分组> by_vs_am
Source: local data frame [32 x 11]
Groups: vs, am [4]

     mpg   cyl  disp    hp  drat    wt  qsec    vs    am
*          
1   21.0     6 160.0   110  3.90 2.620 16.46     0     1
2   21.0     6 160.0   110  3.90 2.875 17.02     0     1
3   22.8     4 108.0    93  3.85 2.320 18.61     1     1
4   21.4     6 258.0   110  3.08 3.215 19.44     1     0
5   18.7     8 360.0   175  3.15 3.440 17.02     0     0
6   18.1     6 225.0   105  2.76 3.460 20.22     1     0
7   14.3     8 360.0   245  3.21 3.570 15.84     0     0
8   24.4     4 146.7    62  3.69 3.190 20.00     1     0
9   22.8     4 140.8    95  3.92 3.150 22.90     1     0
10  19.2     6 167.6   123  3.92 3.440 18.30     1     0
# ... with 22 more rows, and 2 more variables:
#   gear , carb 
…
> by_va <- summarise(by_vs_am, n = n())   ## 对分组变量进行计数，其中n()只应用于summarise, ##mutate和filter函数> by_vaSource: local data frame [4 x 3]Groups: vs [?]     vs    am     n    1     0     0    122     0     1     63     1     0     74     1     1     7
```python
summarise(by_va, n = sum(n))  ##汇总计数，但是只对第一列
```

> summarise(by_va, n = sum(n))  ##汇总计数，但是只对第一列# A tibble: 2 × 2     vs     n   1     0    182     1    14
```python
group_by(mtcars, vsam = vs + am) ##分组变量为表达式，默认添加这一列
```


> group_by(mtcars, vsam = vs + am) ##分组变量为表达式，默认添加这一列
Source: local data frame [32 x 12]
Groups: vsam [3]

     mpg   cyl  disp    hp  drat    wt  qsec    vs    am
           
1   21.0     6 160.0   110  3.90 2.620 16.46     0     1
2   21.0     6 160.0   110  3.90 2.875 17.02     0     1
3   22.8     4 108.0    93  3.85 2.320 18.61     1     1
4   21.4     6 258.0   110  3.08 3.215 19.44     1     0
5   18.7     8 360.0   175  3.15 3.440 17.02     0     0
6   18.1     6 225.0   105  2.76 3.460 20.22     1     0
7   14.3     8 360.0   245  3.21 3.570 15.84     0     0
8   24.4     4 146.7    62  3.69 3.190 20.00     1     0
9   22.8     4 140.8    95  3.92 3.150 22.90     1     0
10  19.2     6 167.6   123  3.92 3.440 18.30     1     0
# ... with 22 more rows, and 3 more variables:
#   gear , carb , vsam 
…
1     4 105.1364 26.87159
2     6 183.3143 41.56246
3     8 353.1000 67.77132
> by_cyl <- mtcars %>% group_by(cyl)
> by_cyl %>% summarise(a = n(), b = a + 1)
# A tibble: 3 × 3
    cyl     a     b
    
1     4    11    12
2     6     7     8
3     8    14    15
 9.select用法：
> iris<- tbl_df(iris)> select(iris, starts_with("Petal"))
# A tibble: 150 × 2
   Petal.Length Petal.Width
                 
1           1.4         0.2
2           1.4         0.2
3           1.3         0.2
4           1.5         0.2
5           1.4         0.2
6           1.7         0.4
7           1.4         0.3
8           1.5         0.2
9           1.4         0.2
10          1.5         0.1
# ... with 140 more rows
> select(iris, ends_with("Width"))
# A tibble: 150 × 2
   Sepal.Width Petal.Width
                
1          3.5         0.2
2          3.0         0.2
3          3.2         0.2
4          3.1         0.2
5          3.6         0.2
6          3.9         0.4
7          3.4         0.3
8          3.4         0.2
9          2.9         0.2
10         3.1         0.1
# ... with 140 more rows
> select(iris, contains("etal"))
# A tibble: 150 × 2
   Petal.Length Petal.Width
                 
1           1.4         0.2
2           1.4         0.2
3           1.3         0.2
4           1.5         0.2
5           1.4         0.2
6           1.7         0.4
7           1.4         0.3
8           1.5         0.2
9           1.4         0.2
10          1.5         0.1
# ... with 140 more rows
> select(iris, matches(".t.")) ##".t."为正则表达式
# A tibble: 150 × 4
   Sepal.Length Sepal.Width Petal.Length Petal.Width
                                
1           5.1         3.5          1.4         0.2
2           4.9         3.0          1.4         0.2
3           4.7         3.2          1.3         0.2
4           4.6         3.1          1.5         0.2
5           5.0         3.6          1.4         0.2
6           5.4         3.9          1.7         0.4
7           4.6         3.4          1.4         0.3
8           5.0         3.4          1.5         0.2
9           4.4         2.9          1.4         0.2
10          4.9         3.1          1.5         0.1
# ... with 140 more rows
> select(iris, Petal.Length, Petal.Width)
# A tibble: 150 × 2
   Petal.Length Petal.Width
                 
1           1.4         0.2
2           1.4         0.2
3           1.3         0.2
4           1.5         0.2
5           1.4         0.2
6           1.7         0.4
7           1.4         0.3
8           1.5         0.2
9           1.4         0.2
10          1.5         0.1
# ... with 140 more rows
> vars <- c("Petal.Length", "Petal.Width")
> select(iris, one_of(vars))
# A tibble: 150 × 2
   Petal.Length Petal.Width
                 
1           1.4         0.2
2           1.4         0.2
3           1.3         0.2
4           1.5         0.2
5           1.4         0.2
6           1.7         0.4
7           1.4         0.3
8           1.5         0.2
9           1.4         0.2
10          1.5         0.1
# ... with 140 more rows
> select_(iris, ~Petal.Length)
# A tibble: 150 × 1
   Petal.Length
          
1           1.4
2           1.4
3           1.3
4           1.5
5           1.4
6           1.7
7           1.4
8           1.5
9           1.4
10          1.5
# ... with 140 more rows
> select_(iris, "Petal.Length")
# A tibble: 150 × 1
   Petal.Length
          
1           1.4
2           1.4
3           1.3
4           1.5
5           1.4
6           1.7
7           1.4
8           1.5
9           1.4
10          1.5
# ... with 140 more rows
…
